UBC DSCI 200 – sampling-design
…
srs_student |>
    summarise(Mean_GPA = mean(GPA))

# A tibble: 1 × 1
  Mean_GPA
     <dbl>
1     3.25

Alternative solution using dplyr’s sample_frac() functions

student_data |> sample_frac(size = 0.1)

# A tibble: 4,500 × 2
   Student         GPA
   <chr>         <dbl>
 1 Student 23289  3.74
 2 Student 9688   3.42
 3 Student 28888  3.00
 4 Student 10307  2.56
 5 Student 28497  3.89
 6 Student 10028  3.41
 7 Student 37556  3.45
 8 Student 6474   3.82
 9 Student 3143   3.53
10 Student 22272  3.70
# ℹ 4,490 more rows
…
Again, suppose you want to survey UBC students.

You stand outside of the bookstore and randomly select every 10th person.

Let’s look at our student_data again and perform a 1-in-10 systematic sample:

set.seed(200)

start <- sample(1:10,1) # randomly define a student to start with

student_data |> 
    slice(seq(start, n(), by = 10)) # sample every 10th student

# A tibble: 4,500 × 2
   Student      GPA
   <chr>      <dbl>
 1 Student 6   3.76
 2 Student 16  2.96
 3 Student 26  2.90
 4 Student 36  3.34
 5 Student 46  3.53
 6 Student 56  2.70
 7 Student 66  3.52
 8 Student 76  2.97
 9 Student 86  3.68
10 Student 96  3.06
# ℹ 4,490 more rows
…
