UBC DSCI 200 – data-acquisition
…
FileSystemDataset (query)
CheckoutYear: int32
CheckoutMonth: int64
TotalCheckouts: int64

* Grouped by CheckoutYear
* Sorted by CheckoutYear [asc], CheckoutMonth [asc]
See $.data for the source Arrow object

Queries are lazily evaluated; actual computation happens on collect():

query |> collect()

# A tibble: 58 × 3
# Groups:   CheckoutYear [5]
   CheckoutYear CheckoutMonth TotalCheckouts
          <int>         <int>          <int>
 1         2018             1         355101
 2         2018             2         309813
 3         2018             3         344487
 4         2018             4         330988
 5         2018             5         318049
 6         2018             6         341825
 7         2018             7         351207
 8         2018             8         352977
 9         2018             9         319587
10         2018            10         338497
# ℹ 48 more rows
…
